{
  "name": "",
  "css_prefix_text": "icon-",
  "css_use_suffix": false,
  "hinting": true,
  "units_per_em": 1000,
  "ascent": 850,
  "glyphs": [
    {
      "uid": "9dd9e835aebe1060ba7190ad2b2ed951",
      "css": "search",
      "code": 59441,
      "src": "fontawesome"
    },
    {
      "uid": "8b80d36d4ef43889db10bc1f0dc9a862",
      "css": "user",
      "code": 59404,
      "src": "fontawesome"
    },
    {
      "uid": "31972e4e9d080eaa796290349ae6c1fd",
      "css": "users",
      "code": 59405,
      "src": "fontawesome"
    },
    {
      "uid": "12f4ece88e46abd864e40b35e05b11cd",
      "css": "ok",
      "code": 59397,
      "src": "fontawesome"
    },
    {
      "uid": "43ab845088317bd348dee1d975700c48",
      "css": "ok-circled",
      "code": 59436,
      "src": "fontawesome"
    },
    {
      "uid": "0f4cae16f34ae243a6144c18a003f2d8",
      "css": "cancel-circled",
      "code": 59437,
      "src": "fontawesome"
    },
    {
      "uid": "44e04715aecbca7f266a17d5a7863c68",
      "css": "plus",
      "code": 59434,
      "src": "fontawesome"
    },
    {
      "uid": "861ab06e455e2de3232ebef67d60d708",
      "css": "minus",
      "code": 59435,
      "src": "fontawesome"
    },
    {
      "uid": "17ebadd1e3f274ff0205601eef7b9cc4",
      "css": "help-circled",
      "code": 59440,
      "src": "fontawesome"
    },
    {
      "uid": "7277ded7695b2a307a5f9d50097bb64c",
      "css": "print",
      "code": 59401,
      "src": "fontawesome"
    },
    {
      "uid": "b035c28eba2b35c6ffe92aee8b0df507",
      "css": "attention-circled",
      "code": 59438,
      "src": "fontawesome"
    },
    {
      "uid": "9f7e588c66cfd6891f6f507cf6f6596b",
      "css": "phone",
      "code": 59400,
      "src": "fontawesome"
    },
    {
      "uid": "5bb103cd29de77e0e06a52638527b575",
      "css": "wrench",
      "code": 59407,
      "src": "fontawesome"
    },
    {
      "uid": "531bc468eecbb8867d822f1c11f1e039",
      "css": "calendar",
      "code": 59442,
      "src": "fontawesome"
    },
    {
      "uid": "598a5f2bcf3521d1615de8e1881ccd17",
      "css": "clock",
      "code": 59398,
      "src": "fontawesome"
    },
    {
      "uid": "2d6150442079cbda7df64522dc24f482",
      "css": "down-dir",
      "code": 59430,
      "src": "fontawesome"
    },
    {
      "uid": "80cd1022bd9ea151d554bec1fa05f2de",
      "css": "up-dir",
      "code": 59431,
      "src": "fontawesome"
    },
    {
      "uid": "9dc654095085167524602c9acc0c5570",
      "css": "left-dir",
      "code": 59432,
      "src": "fontawesome"
    },
    {
      "uid": "fb1c799ffe5bf8fb7f8bcb647c8fe9e6",
      "css": "right-dir",
      "code": 59433,
      "src": "fontawesome"
    },
    {
      "uid": "757afacc32d82967975cbb3b45cfb41b",
      "css": "desktop",
      "code": 59399,
      "src": "fontawesome"
    },
    {
      "uid": "7d1ca956f4181a023de4b9efbed92524",
      "css": "chart-area",
      "code": 59416,
      "src": "fontawesome"
    },
    {
      "uid": "f4445feb55521283572ee88bc304f928",
      "css": "floppy",
      "code": 59402,
      "src": "fontawesome"
    },
    {
      "uid": "026007bd17bfc67f3fe013199676f620",
      "css": "dollar",
      "code": 59423,
      "src": "fontawesome"
    },
    {
      "uid": "33194d4a025fbf12baca54579afe4c8e",
      "css": "at",
      "code": 59403,
      "src": "fontawesome"
    },
    {
      "uid": "8e04c98c8f5ca0a035776e3001ad2638",
      "css": "facebook",
      "code": 59411,
      "src": "fontawesome"
    },
    {
      "uid": "4c1ef492f1d2c39a2250ae457cee2a6e",
      "css": "instagramm",
      "code": 59413,
      "src": "fontawesome"
    },
    {
      "uid": "e9107949dd6c9e8ab2b29ae07156e38c",
      "css": "linkedin",
      "code": 59415,
      "src": "fontawesome"
    },
    {
      "uid": "627abcdb627cb1789e009c08e2678ef9",
      "css": "twitter",
      "code": 59412,
      "src": "fontawesome"
    },
    {
      "uid": "e335adbc2d898c7d85d40c507796e7b4",
      "css": "mail",
      "code": 59396,
      "src": "entypo"
    },
    {
      "uid": "bc64550dd022ce21604f97309b346cea",
      "css": "cog",
      "code": 59410,
      "src": "entypo"
    },
    {
      "uid": "a204f0fa972408eaae5a363c444991b2",
      "css": "login",
      "code": 59408,
      "src": "entypo"
    },
    {
      "uid": "2d76f2c8d13be40694ecadfea7fb83c3",
      "css": "logout",
      "code": 59409,
      "src": "entypo"
    },
    {
      "uid": "8704cd847a47b64265b8bb110c8b4d62",
      "css": "down-open",
      "code": 59427,
      "src": "entypo"
    },
    {
      "uid": "c311c48d79488965b0fab7f9cd12b6b5",
      "css": "left-open",
      "code": 59417,
      "src": "entypo"
    },
    {
      "uid": "749e7d90a9182938180f1d2d8c33584e",
      "css": "right-open",
      "code": 59420,
      "src": "entypo"
    },
    {
      "uid": "9c7ff134960bb5a82404e4aeaab366d9",
      "css": "up-open",
      "code": 59424,
      "src": "entypo"
    },
    {
      "uid": "f11c9e95ae5eaa84d193e8fa1d38c6f9",
      "css": "down-open-mini",
      "code": 59428,
      "src": "entypo"
    },
    {
      "uid": "592717bd601645d61517d2a584d04127",
      "css": "left-open-mini",
      "code": 59418,
      "src": "entypo"
    },
    {
      "uid": "37f6cfbb4062ed0d01b351ec35c334ff",
      "css": "right-open-mini",
      "code": 59421,
      "src": "entypo"
    },
    {
      "uid": "9e251fb8e9e1c71ab09683468e0479a3",
      "css": "up-open-mini",
      "code": 59425,
      "src": "entypo"
    },
    {
      "uid": "289b5f92f23acf1059c93fbf401c1ad5",
      "css": "down-open-big",
      "code": 59429,
      "src": "entypo"
    },
    {
      "uid": "884cfc3e6e2d456dd2a2ca0dbb9e6337",
      "css": "left-open-big",
      "code": 59419,
      "src": "entypo"
    },
    {
      "uid": "004882ab2d5c418c5b2060e80596279b",
      "css": "right-open-big",
      "code": 59422,
      "src": "entypo"
    },
    {
      "uid": "0805cca616b3c12714f35af4d0912c10",
      "css": "up-open-big",
      "code": 59426,
      "src": "entypo"
    },
    {
      "uid": "3bd18d47a12b8709e9f4fe9ead4f7518",
      "css": "arrows-ccw",
      "code": 59439,
      "src": "entypo"
    },
    {
      "uid": "b945f4ac2439565661e8e4878e35d379",
      "css": "gplus",
      "code": 59414,
      "src": "entypo"
    },
    {
      "uid": "k7sao112253txym1egnte7822irbyphe",
      "css": "eye",
      "code": 59394,
      "src": "typicons"
    },
    {
      "uid": "jqzwo6i8oicjbn049sh2856d8anrqoli",
      "css": "edit",
      "code": 59392,
      "src": "typicons"
    },
    {
      "uid": "csuoy0rqoun3unhsgjoy2uumpldzbfmt",
      "css": "trash",
      "code": 59393,
      "src": "typicons"
    },
    {
      "uid": "62b0580ee8edc3a3edfbf68a47c852d5",
      "css": "pencil",
      "code": 59395,
      "src": "elusive"
    },
    {
      "uid": "f5686c8ccdc0213b081ef95678160b6d",
      "css": "basket",
      "code": 59406,
      "src": "elusive"
    }
  ]
}